…
books <- gutenberg_works(author %in% c("Brontë, Emily", "Brontë, Charlotte")) %>%
    gutenberg_download(meta_fields = c("title", "author"), mirror = mirror_url) %>%
    transmute(title,
        author = if_else(author == "Brontë, Emily",
            "Emily Brontë",
            "Charlotte Brontë"
        ) %>% factor(),
        line_index = row_number(),
        text
    )
books
# !collapse(1:14) collapsed
#> # A tibble: 59,283 × 4
#>    title             author       line_index text               
#>    <chr>             <fct>             <int> <chr>              
#>  1 Wuthering Heights Emily Brontë          1 "Wuthering Heights"
#>  2 Wuthering Heights Emily Brontë          2 ""                 
#>  3 Wuthering Heights Emily Brontë          3 "by Emily Brontë"  
#>  4 Wuthering Heights Emily Brontë          4 ""                 
#>  5 Wuthering Heights Emily Brontë          5 ""                 
#>  6 Wuthering Heights Emily Brontë          6 ""                 
#>  7 Wuthering Heights Emily Brontë          7 ""                 
#>  8 Wuthering Heights Emily Brontë          8 "CHAPTER I"        
#>  9 Wuthering Heights Emily Brontë          9 ""                 
#> 10 Wuthering Heights Emily Brontë         10 ""                 
#> # ℹ 59,273 more rows
```
…
model_df <- tidy_books %>%
    count(line_index, word) %>%
    pivot_wider(
        names_from = word, values_from = n,
        values_fill = list(n = 0)
    ) %>%
    left_join(books, by = c("line_index" = "line_index")) %>%
    select(-title, -text)

model_df
# !collapse(1:20) collapsed
#> # A tibble: 32,029 × 432
#>    line_index heights wuthering chapter returned visit heathcliff black  eyes
#>         <int>   <int>     <int>   <int>    <int> <int>      <int> <int> <int>
#>  1          1       1         1       0        0     0          0     0     0
#>  2          8       0         0       1        0     0          0     0     0
#>  3         11       0         0       0        1     1          0     0     0
#>  4         15       0         0       0        0     0          1     0     0
#>  5         17       0         0       0        0     0          0     1     1
#>  6         19       0         0       0        0     0          0     0     0
#>  7         22       0         0       0        0     0          1     0     0
#>  8         24       0         0       0        0     0          0     0     0
#>  9         26       0         0       0        0     0          0     0     0
#> 10         27       0         0       0        0     0          0     0     0
#> # ℹ 32,019 more rows
#> # ℹ 423 more variables: heart <int>, fingers <int>, answer <int>, sir <int>,
#> #   hope <int>, grange <int>, heard <int>, thrushcross <int>,
#> #   interrupted <int>, walk <int>, closed <int>, uttered <int>, gate <int>,
#> #   words <int>, hand <int>, entered <int>, joseph <int>, bring <int>,
#> #   horse <int>, suppose <int>, nay <int>, dinner <int>, `heathcliff’s` <int>,
#> #   times <int>, guess <int>, wind <int>, house <int>, set <int>, …
```
…
``` r
initial_fit %>%
    extract_fit_parsnip() %>%
    tidy()
# !collapse(1:20) collapsed
#> 
#> Attaching package: 'Matrix'
#> The following objects are masked from 'package:tidyr':
#> 
#>     expand, pack, unpack
#> Loaded glmnet 4.1-7
#> # A tibble: 431 × 3
#>    term        estimate penalty
#>    <chr>          <dbl>   <dbl>
#>  1 (Intercept)   -1.14     0.05
#>  2 heights        0        0.05
#>  3 wuthering      0        0.05
#>  4 chapter        0        0.05
#>  5 returned       0        0.05
#>  6 visit          0        0.05
#>  7 heathcliff     0.153    0.05
#>  8 black          0        0.05
#>  9 eyes           0        0.05
#> 10 heart          0        0.05
#> # ℹ 421 more rows
```

We can make predictions with `initial_fit` anyway, and examine metrics
like overall accuracy.

``` r
initial_predict <- predict(initial_fit, book_test) %>%
    bind_cols(predict(initial_fit, book_test, type = "prob")) %>%
    bind_cols(book_test %>% select(author, line_index))

initial_predict
# !collapse(1:15) collapsed
#> # A tibble: 8,008 × 5
#>    .pred_class     .pred_Charlotte Bron…¹ `.pred_Emily Brontë` author line_index
#>    <fct>                            <dbl>                <dbl> <fct>       <int>
#>  1 Charlotte Bron…                  0.766                0.234 Emily…         11
#>  2 Charlotte Bron…                  0.766                0.234 Emily…         26
#>  3 Charlotte Bron…                  0.766                0.234 Emily…         29
#>  4 Charlotte Bron…                  0.766                0.234 Emily…         36
#>  5 Charlotte Bron…                  0.766                0.234 Emily…         49
#>  6 Charlotte Bron…                  0.766                0.234 Emily…         74
#>  7 Charlotte Bron…                  0.766                0.234 Emily…         78
#>  8 Charlotte Bron…                  0.766                0.234 Emily…         79
#>  9 Charlotte Bron…                  0.766                0.234 Emily…         88
#> 10 Charlotte Bron…                  0.766                0.234 Emily…        110
#> # ℹ 7,998 more rows
#> # ℹ abbreviated name: ¹​`.pred_Charlotte Brontë`
```
…
``` r
top_models <- logistic_results %>%
    show_best(metric = "roc_auc", n = 100) %>%
    arrange(desc(penalty)) %>%
    filter(mean > 0.9)

top_models
# !collapse(1:14) collapsed
#> # A tibble: 79 × 7
#>     penalty .metric .estimator  mean     n std_err .config               
#>       <dbl> <chr>   <chr>      <dbl> <int>   <dbl> <chr>                 
#>  1 0.00756  roc_auc binary     0.916    10 0.00147 Preprocessor1_Model079
#>  2 0.00599  roc_auc binary     0.921    10 0.00122 Preprocessor1_Model078
#>  3 0.00475  roc_auc binary     0.923    10 0.00120 Preprocessor1_Model077
#>  4 0.00376  roc_auc binary     0.925    10 0.00122 Preprocessor1_Model076
#>  5 0.00298  roc_auc binary     0.926    10 0.00117 Preprocessor1_Model075
#>  6 0.00236  roc_auc binary     0.926    10 0.00133 Preprocessor1_Model074
#>  7 0.00187  roc_auc binary     0.927    10 0.00130 Preprocessor1_Model073
#>  8 0.00148  roc_auc binary     0.927    10 0.00126 Preprocessor1_Model072
#>  9 0.00118  roc_auc binary     0.927    10 0.00118 Preprocessor1_Model071
#> 10 0.000933 roc_auc binary     0.927    10 0.00119 Preprocessor1_Model070
#> # ℹ 69 more rows
```
…
