…
packageVersion("dplyr")
#> [1] '1.1.2'
```

``` r
penguins <- palmerpenguins::penguins
penguins
# !collapse(1:15) collapsed
#> # A tibble: 344 × 8
#>    species island    bill_length_mm bill_depth_mm flipper_length_mm body_mass_g
#>    <fct>   <fct>              <dbl>         <dbl>             <int>       <int>
#>  1 Adelie  Torgersen           39.1          18.7               181        3750
#>  2 Adelie  Torgersen           39.5          17.4               186        3800
#>  3 Adelie  Torgersen           40.3          18                 195        3250
#>  4 Adelie  Torgersen           NA            NA                  NA          NA
#>  5 Adelie  Torgersen           36.7          19.3               193        3450
#>  6 Adelie  Torgersen           39.3          20.6               190        3650
#>  7 Adelie  Torgersen           38.9          17.8               181        3625
#>  8 Adelie  Torgersen           39.2          19.6               195        4675
#>  9 Adelie  Torgersen           34.1          18.1               193        3475
#> 10 Adelie  Torgersen           42            20.2               190        4250
#> # ℹ 334 more rows
#> # ℹ 2 more variables: sex <fct>, year <int>
```
…
For conditional selection (previous `_if` variants), predicate function
should be wrapped in `where`.

``` r
# double all numeric columns
penguins %>%
  mutate(across(where(is.numeric), ~ .x * 2))
# !collapse(1:16) collapsed
#> # A tibble: 344 × 8
#>    species island    bill_length_mm bill_depth_mm flipper_length_mm body_mass_g
#>    <fct>   <fct>              <dbl>         <dbl>             <dbl>       <dbl>
#>  1 Adelie  Torgersen           78.2          37.4               362        7500
#>  2 Adelie  Torgersen           79            34.8               372        7600
#>  3 Adelie  Torgersen           80.6          36                 390        6500
#>  4 Adelie  Torgersen           NA            NA                  NA          NA
#>  5 Adelie  Torgersen           73.4          38.6               386        6900
#>  6 Adelie  Torgersen           78.6          41.2               380        7300
#>  7 Adelie  Torgersen           77.8          35.6               362        7250
#>  8 Adelie  Torgersen           78.4          39.2               390        9350
#>  9 Adelie  Torgersen           68.2          36.2               386        6950
#> 10 Adelie  Torgersen           84            40.4               380        8500
#> # ℹ 334 more rows
#> # ℹ 2 more variables: sex <fct>, year <dbl>
…
## Move Columns {#move-columns}

New verb `relocate` is provided to change column positions with the same
syntax as `select`. The default behavior is to move selected columns to
the left-hand side

``` r
penguins %>% relocate(island)
# !collapse(1:16) collapsed
#> # A tibble: 344 × 8
#>    island    species bill_length_mm bill_depth_mm flipper_length_mm body_mass_g
#>    <fct>     <fct>            <dbl>         <dbl>             <int>       <int>
#>  1 Torgersen Adelie            39.1          18.7               181        3750
#>  2 Torgersen Adelie            39.5          17.4               186        3800
#>  3 Torgersen Adelie            40.3          18                 195        3250
#>  4 Torgersen Adelie            NA            NA                  NA          NA
#>  5 Torgersen Adelie            36.7          19.3               193        3450
#>  6 Torgersen Adelie            39.3          20.6               190        3650
#>  7 Torgersen Adelie            38.9          17.8               181        3625
#>  8 Torgersen Adelie            39.2          19.6               195        4675
#>  9 Torgersen Adelie            34.1          18.1               193        3475
#> 10 Torgersen Adelie            42            20.2               190        4250
#> # ℹ 334 more rows
#> # ℹ 2 more variables: sex <fct>, year <int>

penguins %>% relocate(starts_with("bill"))
# !collapse(1:16) collapsed
#> # A tibble: 344 × 8
#>    bill_length_mm bill_depth_mm species island    flipper_length_mm body_mass_g
#>             <dbl>         <dbl> <fct>   <fct>                 <int>       <int>
#>  1           39.1          18.7 Adelie  Torgersen               181        3750
#>  2           39.5          17.4 Adelie  Torgersen               186        3800
#>  3           40.3          18   Adelie  Torgersen               195        3250
#>  4           NA            NA   Adelie  Torgersen                NA          NA
#>  5           36.7          19.3 Adelie  Torgersen               193        3450
#>  6           39.3          20.6 Adelie  Torgersen               190        3650
#>  7           38.9          17.8 Adelie  Torgersen               181        3625
#>  8           39.2          19.6 Adelie  Torgersen               195        4675
#>  9           34.1          18.1 Adelie  Torgersen               193        3475
#> 10           42            20.2 Adelie  Torgersen               190        4250
#> # ℹ 334 more rows
#> # ℹ 2 more variables: sex <fct>, year <int>

penguins %>% relocate(sex, body_mass_g, .after = species)
# !collapse(1:15) collapsed
#> # A tibble: 344 × 8
#>    species sex    body_mass_g island    bill_length_mm bill_depth_mm
#>    <fct>   <fct>        <int> <fct>              <dbl>         <dbl>
#>  1 Adelie  male          3750 Torgersen           39.1          18.7
#>  2 Adelie  female        3800 Torgersen           39.5          17.4
#>  3 Adelie  female        3250 Torgersen           40.3          18  
#>  4 Adelie  <NA>            NA Torgersen           NA            NA  
#>  5 Adelie  female        3450 Torgersen           36.7          19.3
#>  6 Adelie  male          3650 Torgersen           39.3          20.6
#>  7 Adelie  female        3625 Torgersen           38.9          17.8
#>  8 Adelie  male          4675 Torgersen           39.2          19.6
#>  9 Adelie  <NA>          3475 Torgersen           34.1          18.1
#> 10 Adelie  <NA>          4250 Torgersen           42            20.2
#> # ℹ 334 more rows
#> # ℹ 2 more variables: flipper_length_mm <int>, year <int>
```

Similarly, `mutate` gains new arguments `.after` and `.before` to
control where new columns should appear.

``` r
penguins %>%
  mutate(mass_double = body_mass_g * 2, .before = 1)
# !collapse(1:15) collapsed
#> # A tibble: 344 × 9
#>    mass_double species island    bill_length_mm bill_depth_mm flipper_length_mm
#>          <dbl> <fct>   <fct>              <dbl>         <dbl>             <int>
#>  1        7500 Adelie  Torgersen           39.1          18.7               181
#>  2        7600 Adelie  Torgersen           39.5          17.4               186
#>  3        6500 Adelie  Torgersen           40.3          18                 195
#>  4          NA Adelie  Torgersen           NA            NA                  NA
#>  5        6900 Adelie  Torgersen           36.7          19.3               193
#>  6        7300 Adelie  Torgersen           39.3          20.6               190
#>  7        7250 Adelie  Torgersen           38.9          17.8               181
#>  8        9350 Adelie  Torgersen           39.2          19.6               195
#>  9        6950 Adelie  Torgersen           34.1          18.1               193
#> 10        8500 Adelie  Torgersen           42            20.2               190
#> # ℹ 334 more rows
#> # ℹ 3 more variables: body_mass_g <int>, sex <fct>, year <int>
```
…
penguins %>%
  slice_sample(prop = 0.1)
# !collapse(1:15) collapsed
#> # A tibble: 34 × 8
#>    species   island bill_length_mm bill_depth_mm flipper_length_mm body_mass_g
#>    <fct>     <fct>           <dbl>         <dbl>             <int>       <int>
#>  1 Gentoo    Biscoe           47.3          15.3               222        5250
#>  2 Gentoo    Biscoe           44.5          14.7               214        4850
#>  3 Chinstrap Dream            46.6          17.8               193        3800
#>  4 Gentoo    Biscoe           NA            NA                  NA          NA
#>  5 Adelie    Biscoe           35.7          16.9               185        3150
#>  6 Gentoo    Biscoe           49.1          14.8               220        5150
#>  7 Adelie    Biscoe           40.1          18.9               188        4300
#>  8 Adelie    Dream            44.1          19.7               196        4400
#>  9 Chinstrap Dream            51.3          19.9               198        3700
#> 10 Adelie    Dream            40.3          18.5               196        4350
#> # ℹ 24 more rows
#> # ℹ 2 more variables: sex <fct>, year <int>
```
…
- `.groups = "keep"` preserves the grouping of the input.

- `.groups = "rowwise"` turns each row into its own group.

## Other Changes {#other-changes}

The new `rename_with()` makes it easier to rename variables
programmatically:

``` r
penguins %>%
  rename_with(stringr::str_to_upper)
# !collapse(1:15) collapsed
#> # A tibble: 344 × 8
#>    SPECIES ISLAND    BILL_LENGTH_MM BILL_DEPTH_MM FLIPPER_LENGTH_MM BODY_MASS_G
#>    <fct>   <fct>              <dbl>         <dbl>             <int>       <int>
#>  1 Adelie  Torgersen           39.1          18.7               181        3750
#>  2 Adelie  Torgersen           39.5          17.4               186        3800
#>  3 Adelie  Torgersen           40.3          18                 195        3250
#>  4 Adelie  Torgersen           NA            NA                  NA          NA
#>  5 Adelie  Torgersen           36.7          19.3               193        3450
#>  6 Adelie  Torgersen           39.3          20.6               190        3650
#>  7 Adelie  Torgersen           38.9          17.8               181        3625
#>  8 Adelie  Torgersen           39.2          19.6               195        4675
#>  9 Adelie  Torgersen           34.1          18.1               193        3475
#> 10 Adelie  Torgersen           42            20.2               190        4250
#> # ℹ 334 more rows
#> # ℹ 2 more variables: SEX <fct>, YEAR <int>
```

You can optionally choose which columns to apply the transformation to
with the second argument:

``` r
penguins %>%
  rename_with(stringr::str_to_upper, starts_with("bill"))
# !collapse(1:15) collapsed
#> # A tibble: 344 × 8
#>    species island    BILL_LENGTH_MM BILL_DEPTH_MM flipper_length_mm body_mass_g
#>    <fct>   <fct>              <dbl>         <dbl>             <int>       <int>
#>  1 Adelie  Torgersen           39.1          18.7               181        3750
#>  2 Adelie  Torgersen           39.5          17.4               186        3800
#>  3 Adelie  Torgersen           40.3          18                 195        3250
#>  4 Adelie  Torgersen           NA            NA                  NA          NA
#>  5 Adelie  Torgersen           36.7          19.3               193        3450
#>  6 Adelie  Torgersen           39.3          20.6               190        3650
#>  7 Adelie  Torgersen           38.9          17.8               181        3625
#>  8 Adelie  Torgersen           39.2          19.6               195        4675
#>  9 Adelie  Torgersen           34.1          18.1               193        3475
#> 10 Adelie  Torgersen           42            20.2               190        4250
#> # ℹ 334 more rows
#> # ℹ 2 more variables: sex <fct>, year <int>
```

`mutate()` gains argument `.keep` that allows you to control which
columns are retained in the output:

``` r
penguins %>% mutate(
  double_mass = body_mass_g * 2,
  island_lower = stringr::str_to_lower(island),
  .keep = "used"
)
# !collapse(1:15) collapsed
#> # A tibble: 344 × 4
#>    island    body_mass_g double_mass island_lower
#>    <fct>           <int>       <dbl> <chr>       
#>  1 Torgersen        3750        7500 torgersen   
#>  2 Torgersen        3800        7600 torgersen   
#>  3 Torgersen        3250        6500 torgersen   
#>  4 Torgersen          NA          NA torgersen   
#>  5 Torgersen        3450        6900 torgersen   
#>  6 Torgersen        3650        7300 torgersen   
#>  7 Torgersen        3625        7250 torgersen   
#>  8 Torgersen        4675        9350 torgersen   
#>  9 Torgersen        3475        6950 torgersen   
#> 10 Torgersen        4250        8500 torgersen   
#> # ℹ 334 more rows

penguins %>% mutate(double_mass = body_mass_g * 2, .keep = "none")
# !collapse(1:14) collapsed
#> # A tibble: 344 × 1
#>    double_mass
#>          <dbl>
#>  1        7500
#>  2        7600
#>  3        6500
#>  4          NA
#>  5        6900
#>  6        7300
#>  7        7250
#>  8        9350
#>  9        6950
#> 10        8500
#> # ℹ 334 more rows
```
…
``` r
library(slider)
library(lubridate)
#> 
#> Attaching package: 'lubridate'
#> The following objects are masked from 'package:base':
#> 
#>     date, intersect, setdiff, union
# historical stock prices from 2014-2018 for Google, Amazon, Facebook and Apple
stock <- tsibbledata::gafa_stock %>% select(Symbol, Date, Close, Volume)
stock
# !collapse(1:14) collapsed
#> # A tibble: 5,032 × 4
#>    Symbol Date       Close    Volume
#>    <chr>  <date>     <dbl>     <dbl>
#>  1 AAPL   2014-01-02  79.0  58671200
#>  2 AAPL   2014-01-03  77.3  98116900
#>  3 AAPL   2014-01-06  77.7 103152700
#>  4 AAPL   2014-01-07  77.1  79302300
#>  5 AAPL   2014-01-08  77.6  64632400
#>  6 AAPL   2014-01-09  76.6  69787200
#>  7 AAPL   2014-01-10  76.1  76244000
#>  8 AAPL   2014-01-13  76.5  94623200
#>  9 AAPL   2014-01-14  78.1  83140400
#> 10 AAPL   2014-01-15  79.6  97909700
#> # ℹ 5,022 more rows
```
…
linear_model <- function(df) {
  lm(Close ~ Volume, data = df)
}

# 10 day rolling regression per group
stock %>%
  mutate(model = slide_index(
    pick(Close, Volume),
    Date,
    linear_model,
    .before = days(9),
    .complete = TRUE
  ))
# !collapse(1:15) collapsed
#> # A tibble: 5,032 × 5
#> # Groups:   Symbol [4]
#>    Symbol Date       Close    Volume model 
#>    <chr>  <date>     <dbl>     <dbl> <list>
#>  1 AAPL   2014-01-02  79.0  58671200 <NULL>
#>  2 AAPL   2014-01-03  77.3  98116900 <NULL>
#>  3 AAPL   2014-01-06  77.7 103152700 <NULL>
#>  4 AAPL   2014-01-07  77.1  79302300 <NULL>
#>  5 AAPL   2014-01-08  77.6  64632400 <NULL>
#>  6 AAPL   2014-01-09  76.6  69787200 <NULL>
#>  7 AAPL   2014-01-10  76.1  76244000 <NULL>
#>  8 AAPL   2014-01-13  76.5  94623200 <lm>  
#>  9 AAPL   2014-01-14  78.1  83140400 <lm>  
#> 10 AAPL   2014-01-15  79.6  97909700 <lm>  
#> # ℹ 5,022 more rows
```
